…
    name = lcol_chr("name"),
    gender = lcol_chr("gender"),
    aliases = lcol_lst_flat(
      "aliases",
      .ptype = character(0),
      .default = NULL
    ),
    allegiances = lcol_lst_flat(
      "allegiances",
      .ptype = character(0),
      .default = NULL
    )
  )
)
#> # A tibble: 30 x 5
#>       id name               gender     aliases allegiances
#>    <int> <chr>              <chr>  <list<chr>> <list<chr>>
#>  1  1022 Theon Greyjoy      Male           [4]         [1]
#>  2  1052 Tyrion Lannister   Male          [11]         [1]
#>  3  1074 Victarion Greyjoy  Male           [1]         [1]
#>  4  1109 Will               Male           [1]         [0]
#>  5  1166 Areo Hotah         Male           [1]         [1]
#>  6  1267 Chett              Male           [1]         [0]
#>  7  1295 Cressen            Male           [1]         [0]
#>  8   130 Arianne Martell    Female         [1]         [1]
#>  9  1303 Daenerys Targaryen Female        [11]         [1]
#> 10  1319 Davos Seaworth     Male           [5]         [2]
#> # … with 20 more rows
```
…
